{"uid":"f02dc71e23ea715b","name":"should retrieve all products ","fullName":"API.test.Products.ProductSpec.should retrieve all products ","historyId":"4652f32652a8541a9ae8af67f81f91ad","time":{"start":1701970701610,"stop":1701970701949,"duration":339},"description":"Test Description: should retrieve all products ","descriptionHtml":"<p>Test Description: should retrieve all products</p>\n","status":"passed","flaky":false,"newFailed":false,"newBroken":false,"newPassed":false,"retriesCount":0,"retriesStatusChange":false,"beforeStages":[],"testStage":{"description":"Test Description: should retrieve all products ","status":"passed","steps":[{"name":"{\n    \"current_page\": 1,\n    \"data\": [\n        {\n            \"id\": \"01HH2KHT5AGSNC2PDRTN35GD07\",\n            \"name\": \"Combination Pliers\",\n            \"description\": \"Lorem ipsum dolor sit amet, consectetur adipiscing elit. Mauris viverra felis nec pellentesque feugiat. Donec faucibus arcu maximus, convallis nisl eu, placerat dolor. Morbi finibus neque nec tincidunt pharetra. Sed eget tortor malesuada, mollis enim id, condimentum nisi. In viverra quam at bibendum ultricies. Aliquam quis eros ex. Etiam at pretium massa, ut pharetra tortor. Sed vel metus sem. Suspendisse ac molestie turpis. Duis luctus justo massa, faucibus ornare eros elementum et. Vestibulum quis nisl vitae ante dapibus tempor auctor ut leo. Mauris consectetur et magna at ultricies. Proin a aliquet turpis.\",\n            \"stock\": 11,\n            \"price\": 14.15,\n            \"is_location_offer\": 0,\n            \"is_rental\": 0,\n            \"brand_id\": \"01HH2KHT4S6S7SE78HC7FWFJW9\",\n            \"category_id\": \"01HH2KHT53257SQ5NJKE6X3KHJ\",\n            \"product_image_id\": \"01HH2KHT566E20PQDDSGTQV889\",\n            \"product_image\": {\n                \"id\": \"01HH2KHT566E20PQDDSGTQV889\",\n                \"by_name\": \"Helinton Fantin\",\n                \"by_url\": \"https://unsplash.com/@fantin\",\n                \"source_name\": \"Unsplash\",\n                \"source_url\": \"https://unsplash.com/photos/W8BNwvOvW4M\",\n                \"file_name\": \"pliers01.jpeg\",\n                \"title\": \"Combination pliers\"\n            },\n            \"category\": {\n                \"id\": \"01HH2KHT53257SQ5NJKE6X3KHJ\",\n                \"name\": \"Pliers\",\n                \"slug\": \"pliers\",\n                \"parent_id\": \"01HH2KHT50EQGEC40DTMZY78Q6\"\n            },\n            \"brand\": {\n                \"id\": \"01HH2KHT4S6S7SE78HC7FWFJW9\",\n                \"name\": \"Brand name 1\",\n                \"slug\": \"brand-name-1\"\n            }\n        },\n        {\n            \"id\": \"01HH2KHT5CX1MH8D8X4GN84NZ0\",\n            \"name\": \"Pliers\",\n            \"description\": \"Nunc vulputate, orci at congue faucibus, enim neque sodales nulla, nec imperdiet augue odio vel nibh. Etiam auctor, ligula quis gravida dictum, mi massa commodo ante, sollicitudin pulvinar nulla justo hendrerit lacus. Vivamus rutrum pharetra molestie. Fusce tristique odio tristique, elementum est eget, porttitor diam. Orci varius natoque penatibus et magnis dis parturient montes, nascetur ridiculus mus. Maecenas at ligula sed sapien porta pretium. Aenean cursus, magna in blandit consectetur, libero orci aliquet eros, et maximus nunc est eu dolor. Aenean non pellentesque eros. In sodales orci eget orci fringilla, vitae feugiat elit porta. Etiam aliquam, mi pretium tempus mattis, mauris ipsum gravida risus, at tempor nulla ipsum molestie ligula. Ut placerat, urna sit amet tincidunt volutpat, ex orci luctus purus, nec laoreet dolor sapien vel erat.\",\n            \"stock\": 11,\n            \"price\": 12.01,\n            \"is_location_offer\": 0,\n            \"is_rental\": 0,\n            \"brand_id\": \"01HH2KHT4S6S7SE78HC7FWFJW9\",\n            \"category_id\": \"01HH2KHT53257SQ5NJKE6X3KHJ\",\n            \"product_image_id\": \"01HH2KHT566E20PQDDSGTQV88A\",\n            \"product_image\": {\n                \"id\": \"01HH2KHT566E20PQDDSGTQV88A\",\n                \"by_name\": \"Everyday basics\",\n                \"by_url\": \"https://unsplash.com/@zanardi\",\n                \"source_name\": \"Unsplash\",\n                \"source_url\": \"https://unsplash.com/photos/I8eTuMmxIfo\",\n                \"file_name\": \"pliers02.jpeg\",\n                \"title\": \"Pliers\"\n            },\n            \"category\": {\n                \"id\": \"01HH2KHT53257SQ5NJKE6X3KHJ\",\n                \"name\": \"Pliers\",\n                \"slug\": \"pliers\",\n                \"parent_id\": \"01HH2KHT50EQGEC40DTMZY78Q6\"\n            },\n            \"brand\": {\n                \"id\": \"01HH2KHT4S6S7SE78HC7FWFJW9\",\n                \"name\": \"Brand name 1\",\n                \"slug\": \"brand-name-1\"\n            }\n        },\n        {\n            \"id\": \"01HH2KHT5DJ3ARN7GFE4E4QJS4\",\n            \"name\": \"Bolt Cutters\",\n            \"description\": \"Aliquam viverra scelerisque tempus. Ut vehicula, ex sed elementum rhoncus, sem neque vehicula turpis, sit amet accumsan mauris justo non magna. Cras ut vulputate lectus, sit amet sollicitudin enim. Quisque sit amet turpis ut orci pulvinar vestibulum non at velit. Quisque ultrices malesuada felis non rutrum. Sed molestie lobortis nisl, in varius arcu dictum vel. In sit amet fringilla orci. Quisque ac magna dui. Nam pulvinar nulla sed commodo ultricies. Suspendisse aliquet quis eros sit amet gravida. Aenean vitae arcu in sapien sodales commodo.\",\n            \"stock\": 11,\n            \"price\": 48.41,\n            \"is_location_offer\": 1,\n            \"is_rental\": 0,\n            \"brand_id\": \"01HH2KHT4S6S7SE78HC7FWFJW9\",\n            \"category_id\": \"01HH2KHT53257SQ5NJKE6X3KHJ\",\n            \"product_image_id\": \"01HH2KHT566E20PQDDSGTQV88B\",\n            \"product_image\": {\n                \"id\": \"01HH2KHT566E20PQDDSGTQV88B\",\n                \"by_name\": \"Michael Dziedzic\",\n                \"by_url\": \"https://unsplash.com/@lazycreekimages\",\n                \"source_name\": \"Unsplash\",\n                \"source_url\": \"https://unsplash.com/photos/pM9pkc9J918\",\n                \"file_name\": \"pliers03.jpeg\",\n                \"title\": \"Bolt cutters\"\n            },\n            \"category\": {\n                \"id\": \"01HH2KHT53257SQ5NJKE6X3KHJ\",\n                \"name\": \"Pliers\",\n                \"slug\": \"pliers\",\n                \"parent_id\": \"01HH2KHT50EQGEC40DTMZY78Q6\"\n            },\n            \"brand\": {\n                \"id\": \"01HH2KHT4S6S7SE78HC7FWFJW9\",\n                \"name\": \"Brand name 1\",\n                \"slug\": \"brand-name-1\"\n            }\n        },\n        {\n            \"id\": \"01HH2KHT5E7TVAKYGDAD969FS2\",\n            \"name\": \"Long Nose Pliers\",\n            \"description\": \"Phasellus consequat fermentum quam id sodales. Curabitur nec dui orci. Fusce id turpis laoreet, lobortis ex non, finibus libero. Vivamus id enim eu nibh placerat maximus. Aenean semper dui a laoreet venenatis. Vestibulum at ligula quam. Donec interdum tristique neque lacinia laoreet. Sed auctor fermentum congue. Integer aliquet vulputate feugiat. Quisque malesuada diam iaculis ornare maximus. Mauris quam massa, sodales at mattis non, consectetur eget magna. Aliquam eget congue metus, sed congue leo. Nam sit amet est id ligula volutpat pharetra non id nisl. Vestibulum ac enim vitae nisi tempus cursus. Aliquam erat volutpat.\",\n            \"stock\": 0,\n            \"price\": 14.24,\n            \"is_location_offer\": 0,\n            \"is_rental\": 0,\n            \"brand_id\": \"01HH2KHT4S6S7SE78HC7FWFJW9\",\n            \"category_id\": \"01HH2KHT53257SQ5NJKE6X3KHJ\",\n            \"product_image_id\": \"01HH2KHT566E20PQDDSGTQV88C\",\n            \"product_image\": {\n                \"id\": \"01HH2KHT566E20PQDDSGTQV88C\",\n                \"by_name\": \"Brett Jordan\",\n                \"by_url\": \"https://unsplash.com/@brett_jordan\",\n                \"source_name\": \"Unsplash\",\n                \"source_url\": \"https://unsplash.com/photos/GamuDTVm02g\",\n                \"file_name\": \"pliers04.jpeg\",\n                \"title\": \"Long nose pliers\"\n            },\n            \"category\": {\n                \"id\": \"01HH2KHT53257SQ5NJKE6X3KHJ\",\n                \"name\": \"Pliers\",\n                \"slug\": \"pliers\",\n                \"parent_id\": \"01HH2KHT50EQGEC40DTMZY78Q6\"\n            },\n            \"brand\": {\n                \"id\": \"01HH2KHT4S6S7SE78HC7FWFJW9\",\n                \"name\": \"Brand name 1\",\n                \"slug\": \"brand-name-1\"\n            }\n        },\n        {\n            \"id\": \"01HH2KHT5G2Q9X49X3M0G80JF9\",\n            \"name\": \"Slip Joint Pliers\",\n            \"description\": \"Ut cursus dui non ante convallis, facilisis auctor leo luctus. Maecenas a rhoncus metus. Sed in efficitur dolor, vulputate accumsan odio. Sed ex quam, dictum in fringilla at, vestibulum eu sem. Quisque ante orci, vulputate non porttitor eu, aliquet et nunc. Nunc a rhoncus dui. Nunc ac est non eros scelerisque maximus at a eros. Phasellus sed egestas diam, at tempus erat. Morbi sit amet congue tellus, at accumsan magna. Etiam non ornare nisl, sed luctus nisi. Pellentesque ut odio ut sapien aliquet eleifend.\",\n            \"stock\": 11,\n            \"price\": 9.17,\n            \"is_location_offer\": 0,\n            \"is_rental\": 0,\n            \"brand_id\": \"01HH2KHT4S6S7SE78HC7FWFJW9\",\n            \"category_id\": \"01HH2KHT53257SQ5NJKE6X3KHJ\",\n            \"product_image_id\": \"01HH2KHT566E20PQDDSGTQV88D\",\n            \"product_image\": {\n                \"id\": \"01HH2KHT566E20PQDDSGTQV88D\",\n                \"by_name\": \"Yasin Hasan\",\n                \"by_url\": \"https://unsplash.com/@yasin\",\n                \"source_name\": \"Unsplash\",\n                \"source_url\": \"https://unsplash.com/photos/dwlxTSpfKXg\",\n                \"file_name\": \"pliers05.jpeg\",\n                \"title\": \"Slip joint pliers\"\n            },\n            \"category\": {\n                \"id\": \"01HH2KHT53257SQ5NJKE6X3KHJ\",\n                \"name\": \"Pliers\",\n                \"slug\": \"pliers\",\n                \"parent_id\": \"01HH2KHT50EQGEC40DTMZY78Q6\"\n            },\n            \"brand\": {\n                \"id\": \"01HH2KHT4S6S7SE78HC7FWFJW9\",\n                \"name\": \"Brand name 1\",\n                \"slug\": \"brand-name-1\"\n            }\n        },\n        {\n            \"id\": \"01HH2KHT5HXVJ60HVY10CF6MQW\",\n            \"name\": \"Claw Hammer with Shock Reduction Grip\",\n            \"description\": \"Nam efficitur, turpis molestie bibendum lobortis, risus arcu congue tortor, id consequat nibh sem a libero. Pellentesque habitant morbi tristique senectus et netus et malesuada fames ac turpis egestas. Aenean non tincidunt tortor, vel ultricies tortor. Vivamus pulvinar efficitur arcu sit amet accumsan. Aenean dui erat, bibendum at dapibus in, feugiat non eros. Duis sodales felis ex, quis ullamcorper odio interdum non. Ut viverra magna eu augue luctus, quis convallis lectus auctor. Duis ultrices erat urna. Aliquam augue odio, mattis vitae finibus in, pellentesque nec dui. Curabitur nec odio in augue posuere posuere. Vivamus ante est, iaculis ut interdum et, hendrerit ac ante. Fusce ac venenatis neque, id fermentum nulla. Quisque tristique ornare nisi, vitae convallis dui faucibus quis. Vestibulum vel dapibus dolor.\",\n            \"stock\": 11,\n            \"price\": 13.41,\n            \"is_location_offer\": 1,\n            \"is_rental\": 0,\n            \"brand_id\": \"01HH2KHT4S6S7SE78HC7FWFJW9\",\n            \"category_id\": \"01HH2KHT53257SQ5NJKE6X3KHE\",\n            \"product_image_id\": \"01HH2KHT566E20PQDDSGTQV88E\",\n            \"product_image\": {\n                \"id\": \"01HH2KHT566E20PQDDSGTQV88E\",\n                \"by_name\": \"iMattSmart\",\n                \"by_url\": \"https://unsplash.com/@imattsmart\",\n                \"source_name\": \"Unsplash\",\n                \"source_url\": \"https://unsplash.com/photos/jaLaLQdkBOE\",\n                \"file_name\": \"hammer01.jpeg\",\n                \"title\": \"Claw Hammer\"\n            },\n            \"category\": {\n                \"id\": \"01HH2KHT53257SQ5NJKE6X3KHE\",\n                \"name\": \"Hammer\",\n                \"slug\": \"hammer\",\n                \"parent_id\": \"01HH2KHT50EQGEC40DTMZY78Q6\"\n            },\n            \"brand\": {\n                \"id\": \"01HH2KHT4S6S7SE78HC7FWFJW9\",\n                \"name\": \"Brand name 1\",\n                \"slug\": \"brand-name-1\"\n            }\n        },\n        {\n            \"id\": \"01HH2KHT5KKEDQ0XY4NQV62BMP\",\n            \"name\": \"Hammer\",\n            \"description\": \"Mauris mollis odio est, ac vehicula dui lobortis vel. Cras facilisis, mauris ut vehicula dignissim, ex nunc sollicitudin velit, a fermentum mi odio ut massa. Lorem ipsum dolor sit amet, consectetur adipiscing elit. Praesent a sapien vel libero fermentum rhoncus. Etiam ac imperdiet arcu, ac accumsan risus. Fusce vitae lacinia sem, sit amet sagittis lorem. Curabitur efficitur ultricies sem, eu placerat ante tincidunt a. Morbi faucibus ullamcorper mi a mollis. Aenean sed magna aliquam, mollis dui at, condimentum ex. Donec blandit bibendum enim, lacinia vestibulum tellus laoreet sollicitudin. In vitae ullamcorper metus, ut interdum augue. Class aptent taciti sociosqu ad litora torquent per conubia nostra, per inceptos himenaeos. Nullam scelerisque dignissim varius. Nulla facilisi. Praesent eros dolor, ultricies sit amet pellentesque porttitor, pretium ut lectus. Nullam tempus tellus sapien, non condimentum mauris volutpat eget.\",\n            \"stock\": 11,\n            \"price\": 12.58,\n            \"is_location_offer\": 0,\n            \"is_rental\": 0,\n            \"brand_id\": \"01HH2KHT4S6S7SE78HC7FWFJW9\",\n            \"category_id\": \"01HH2KHT53257SQ5NJKE6X3KHE\",\n            \"product_image_id\": \"01HH2KHT566E20PQDDSGTQV88F\",\n            \"product_image\": {\n                \"id\": \"01HH2KHT566E20PQDDSGTQV88F\",\n                \"by_name\": \"Jozsef Hocza\",\n                \"by_url\": \"https://unsplash.com/@hocza\",\n                \"source_name\": \"Unsplash\",\n                \"source_url\": \"https://unsplash.com/photos/D3nouOYbALc\",\n                \"file_name\": \"hammer02.jpeg\",\n                \"title\": \"Hammer\"\n            },\n            \"category\": {\n                \"id\": \"01HH2KHT53257SQ5NJKE6X3KHE\",\n                \"name\": \"Hammer\",\n                \"slug\": \"hammer\",\n                \"parent_id\": \"01HH2KHT50EQGEC40DTMZY78Q6\"\n            },\n            \"brand\": {\n                \"id\": \"01HH2KHT4S6S7SE78HC7FWFJW9\",\n                \"name\": \"Brand name 1\",\n                \"slug\": \"brand-name-1\"\n            }\n        },\n        {\n            \"id\": \"01HH2KHT5M117N1Y96JXEY81EV\",\n            \"name\": \"Claw Hammer\",\n            \"description\": \"Cras pulvinar nisl a quam fringilla tempus. Sed lectus urna, mattis quis arcu eget, aliquam laoreet mauris. Praesent accumsan facilisis eros, ac mattis nulla interdum nec. Phasellus ultrices eu metus in lobortis. Donec ac efficitur orci. Phasellus nulla neque, congue nec tincidunt id, ultrices vel sapien. Curabitur gravida ex leo, laoreet mollis arcu blandit vel.\",\n            \"stock\": 11,\n            \"price\": 11.48,\n            \"is_location_offer\": 1,\n            \"is_rental\": 0,\n            \"brand_id\": \"01HH2KHT4S6S7SE78HC7FWFJW9\",\n            \"category_id\": \"01HH2KHT53257SQ5NJKE6X3KHE\",\n            \"product_image_id\": \"01HH2KHT566E20PQDDSGTQV88G\",\n            \"product_image\": {\n                \"id\": \"01HH2KHT566E20PQDDSGTQV88G\",\n                \"by_name\": \"Andrew George\",\n                \"by_url\": \"https://unsplash.com/@andrewjoegeorge\",\n                \"source_name\": \"Unsplash\",\n                \"source_url\": \"https://unsplash.com/photos/YU2mCvXR0wA\",\n                \"file_name\": \"hammer03.jpeg\",\n                \"title\": \"Claw Hammer\"\n            },\n            \"category\": {\n                \"id\": \"01HH2KHT53257SQ5NJKE6X3KHE\",\n                \"name\": \"Hammer\",\n                \"slug\": \"hammer\",\n                \"parent_id\": \"01HH2KHT50EQGEC40DTMZY78Q6\"\n            },\n            \"brand\": {\n                \"id\": \"01HH2KHT4S6S7SE78HC7FWFJW9\",\n                \"name\": \"Brand name 1\",\n                \"slug\": \"brand-name-1\"\n            }\n        },\n        {\n            \"id\": \"01HH2KHT5NGDT4V3KQR5ABXQKJ\",\n            \"name\": \"Thor Hammer\",\n            \"description\": \"Donec malesuada tempus purus. Integer sit amet arcu magna. Sed vel laoreet ligula, non sollicitudin ex. Mauris euismod ac dolor venenatis lobortis. Aliquam iaculis at diam nec accumsan. Ut sodales sed elit et imperdiet. Maecenas vitae molestie mauris. Integer quis placerat libero, in finibus diam. Interdum et malesuada fames ac ante ipsum primis in faucibus.\",\n            \"stock\": 11,\n            \"price\": 11.14,\n            \"is_location_offer\": 0,\n            \"is_rental\": 0,\n            \"brand_id\": \"01HH2KHT4S6S7SE78HC7FWFJW9\",\n            \"category_id\": \"01HH2KHT53257SQ5NJKE6X3KHE\",\n            \"product_image_id\": \"01HH2KHT566E20PQDDSGTQV88H\",\n            \"product_image\": {\n                \"id\": \"01HH2KHT566E20PQDDSGTQV88H\",\n                \"by_name\": \"ANIRUDH\",\n                \"by_url\": \"https://unsplash.com/@lanirudhreddy\",\n                \"source_name\": \"Unsplash\",\n                \"source_url\": \"https://unsplash.com/photos/3esjG-nlgyk\",\n                \"file_name\": \"hammer04.jpeg\",\n                \"title\": \"Hammer\"\n            },\n            \"category\": {\n                \"id\": \"01HH2KHT53257SQ5NJKE6X3KHE\",\n                \"name\": \"Hammer\",\n                \"slug\": \"hammer\",\n                \"parent_id\": \"01HH2KHT50EQGEC40DTMZY78Q6\"\n            },\n            \"brand\": {\n                \"id\": \"01HH2KHT4S6S7SE78HC7FWFJW9\",\n                \"name\": \"Brand name 1\",\n                \"slug\": \"brand-name-1\"\n            }\n        }\n    ],\n    \"first_page_url\": \"https://api.practicesoftwaretesting.com/products?page=1\",\n    \"from\": 1,\n    \"last_page\": 3,\n    \"per_page\": 9,\n    \"to\": 9,\n    \"total\": 26\n}","time":{"start":1701970701942,"stop":1701970701942,"duration":0},"status":"passed","steps":[],"attachments":[],"parameters":[],"shouldDisplayMessage":false,"attachmentsCount":0,"attachmentStep":false,"stepsCount":0,"hasContent":false}],"attachments":[{"uid":"3d3217d7b78dc985","name":"Request","source":"3d3217d7b78dc985.html","type":"text/html","size":259},{"uid":"8430b7c08d490c81","name":"HTTP/1.1 200 OK","source":"8430b7c08d490c81.html","type":"text/html","size":21755}],"parameters":[],"shouldDisplayMessage":false,"attachmentsCount":2,"attachmentStep":false,"stepsCount":1,"hasContent":true},"afterStages":[],"labels":[{"name":"package","value":"API.test.Products"},{"name":"testClass","value":"API.test.Products.ProductSpec"},{"name":"testMethod","value":"should retrieve all products "},{"name":"suite","value":"ProductSpec"},{"name":"host","value":"Patryks-MBP.mshome.net"},{"name":"thread","value":"89457@Patryks-MBP.mshome.net.main(1)"},{"name":"framework","value":"spock"},{"name":"language","value":"java"},{"name":"story","value":"Verify CRUID Operations on Products module"},{"name":"epic","value":"REST API Tests"},{"name":"resultFormat","value":"allure2"}],"parameters":[],"links":[],"hidden":false,"retry":false,"extra":{"severity":"normal","retries":[],"categories":[],"tags":[]},"source":"f02dc71e23ea715b.json","parameterValues":[]}